                                                                        S0000001
,,31HOpen CASCADE IGES processor 7.6,13HFilename.iges,                  G0000001
16HOpen CASCADE 7.6,31HOpen CASCADE IGES processor 7.6,32,308,15,308,15,G0000002
,1.,2,2HMM,1,0.01,15H20230728.121206,1E-07,59.,,,11,0,                  G0000003
15H20230728.121206,;                                                    G0000004
     402       1       0       0       0       0       0       000000000D0000001
     402       0       0       1       1                               0D0000002
     144       2       0       0       0       0       0       000020000D0000003
     144       0       0       1       0                               0D0000004
     120       3       0       0       0       0       7       000010000D0000005
     120       0       0       1       0                               0D0000006
     124       4       0       0       0       0       0       000000000D0000007
     124       0       0       1       0                               0D0000008
     110       5       0       0       0       0       0       000010000D0000009
     110       0       0       1       0                               0D0000010
     110       6       0       0       0       0       0       000010000D0000011
     110       0       0       1       0                               0D0000012
     142       7       0       0       0       0       0       000010500D0000013
     142       0       0       1       0                               0D0000014
     102       8       0       0       0       0       0       000010000D0000015
     102       0       0       1       0                               0D0000016
     110       9       0       0       0       0       0       000010000D0000017
     110       0       0       1       0                               0D0000018
     110      10       0       0       0       0       0       000010000D0000019
     110       0       0       1       0                               0D0000020
     110      11       0       0       0       0       0       000010000D0000021
     110       0       0       1       0                               0D0000022
     110      12       0       0       0       0       0       000010000D0000023
     110       0       0       1       0                               0D0000024
     102      13       0       0       0       0       0       000010000D0000025
     102       0       0       1       0                               0D0000026
     100      14       0       0       0       0       0       000010000D0000027
     100       0       0       1       0                               0D0000028
     110      15       0       0       0       0       0       000010000D0000029
     110       0       0       1       0                               0D0000030
     100      16       0       0       0       0      33       000010000D0000031
     100       0       0       1       0                               0D0000032
     124      17       0       0       0       0       0       000000000D0000033
     124       0       0       1       0                               0D0000034
     110      18       0       0       0       0       0       000010000D0000035
     110       0       0       1       0                               0D0000036
     144      19       0       0       0       0       0       000020000D0000037
     144       0       0       1       0                               0D0000038
     120      20       0       0       0       0      41       000010000D0000039
     120       0       0       1       0                               0D0000040
     124      21       0       0       0       0       0       000000000D0000041
     124       0       0       1       0                               0D0000042
     110      22       0       0       0       0       0       000010000D0000043
     110       0       0       1       0                               0D0000044
     100      23       0       0       0       0      47       000010000D0000045
     100       0       0       1       0                               0D0000046
     124      24       0       0       0       0       0       000000000D0000047
     124       0       0       1       0                               0D0000048
     142      25       0       0       0       0       0       000010500D0000049
     142       0       0       1       0                               0D0000050
     102      26       0       0       0       0       0       000010000D0000051
     102       0       0       1       0                               0D0000052
     110      27       0       0       0       0       0       000010000D0000053
     110       0       0       1       0                               0D0000054
     110      28       0       0       0       0       0       000010000D0000055
     110       0       0       1       0                               0D0000056
     110      29       0       0       0       0       0       000010000D0000057
     110       0       0       2       0                               0D0000058
     102      31       0       0       0       0       0       000010000D0000059
     102       0       0       1       0                               0D0000060
     100      32       0       0       0       0      63       000010000D0000061
     100       0       0       1       0                               0D0000062
     124      33       0       0       0       0       0       000000000D0000063
     124       0       0       1       0                               0D0000064
     100      34       0       0       0       0      67       000010000D0000065
     100       0       0       1       0                               0D0000066
     124      35       0       0       0       0       0       000000000D0000067
     124       0       0       1       0                               0D0000068
     100      36       0       0       0       0      71       000010000D0000069
     100       0       0       1       0                               0D0000070
     124      37       0       0       0       0       0       000000000D0000071
     124       0       0       1       0                               0D0000072
     144      38       0       0       0       0       0       000020000D0000073
     144       0       0       1       0                               0D0000074
     108      39       0       0       0       0       0       000010000D0000075
     108       0       0       1       0                               0D0000076
     142      40       0       0       0       0       0       000010500D0000077
     142       0       0       1       0                               0D0000078
     100      41       0       0       0       0      81       000010000D0000079
     100       0       0       1       0                               0D0000080
     124      42       0       0       0       0       0       000000000D0000081
     124       0       0       1       0                               0D0000082
402,3,3,37,73;                                                   0000001P0000001
144,5,1,0,13;                                                    0000003P0000002
120,9,11,6.283185307,12.566370614;                               0000005P0000003
124,1.,0.,0.,0.,0.,-1.,0.,0.,0.,0.,-1.,0.;                       0000007P0000004
110,0.,0.,1.,0.,0.,0.;                                           0000009P0000005
110,4.,0.,-55.,4.,0.,0.;                                         0000011P0000006
142,0,5,15,25,3;                                                 0000013P0000007
102,4,17,19,21,23;                                               0000015P0000008
110,1.,6.283185307,0.,1.,12.566370614,0.;                        0000017P0000009
110,1.,12.566370614,0.,-2.220446049E-16,12.566370614,0.;         0000019P0000010
110,2.536631635E-17,12.566370614,0.,0.,6.283185307,0.;           0000021P0000011
110,-2.220446049E-16,6.283185307,0.,1.,6.283185307,0.;           0000023P0000012
102,4,27,29,31,35;                                               0000025P0000013
100,0.,0.,0.,4.,0.,4.,0.;                                        0000027P0000014
110,4.,-9.797174393E-16,0.,4.,-9.797174393E-16,55.;              0000029P0000015
100,0.,0.,0.,4.,0.,4.,0.;                                        0000031P0000016
124,1.,0.,0.,0.,0.,-1.,0.,0.,0.,0.,-1.,55.;                      0000033P0000017
110,4.,-9.797174393E-16,55.,4.,-9.797174393E-16,0.;              0000035P0000018
144,39,1,0,49;                                                   0000037P0000019
120,43,45,0.,6.283185307;                                        0000039P0000020
124,1.,0.,0.,0.,0.,1.,0.,0.,0.,0.,1.,55.;                        0000041P0000021
110,0.,0.,1.,0.,0.,0.;                                           0000043P0000022
100,0.,0.,0.,4.,0.,2.449293598E-16,4.;                           0000045P0000023
124,1.,0.,0.,0.,0.,0.,-1.,0.,0.,1.,-0.,0.;                       0000047P0000024
142,0,39,51,59,3;                                                0000049P0000025
102,3,53,55,57;                                                  0000051P0000026
110,1.570796327,6.283185307,0.,0.,6.283185307,0.;                0000053P0000027
110,0.,6.283185307,0.,-1.395147399E-15,0.,0.;                    0000055P0000028
110,-1.395147399E-15,1.776356839E-15,0.,1.570796327,             0000057P0000029
2.125143689E-15,0.;                                              0000057P0000030
102,3,61,65,69;                                                  0000059P0000031
100,0.,0.,0.,-7.347880795E-16,-4.,4.,0.;                         0000061P0000032
124,1.,0.,0.,0.,0.,0.,1.,0.,0.,-1.,0.,55.;                       0000063P0000033
100,0.,0.,0.,4.,0.,4.,0.;                                        0000065P0000034
124,1.,0.,0.,0.,0.,1.,0.,0.,0.,0.,1.,55.;                        0000067P0000035
100,0.,0.,0.,4.,0.,2.449293598E-16,4.;                           0000069P0000036
124,1.,0.,0.,0.,0.,0.,-1.,0.,0.,1.,0.,55.;                       0000071P0000037
144,75,1,0,77;                                                   0000073P0000038
108,-0.,-0.,-1.,-0.,0,0.,0.,0.,0.;                               0000075P0000039
142,0,75,0,79,2;                                                 0000077P0000040
100,0.,0.,0.,4.,0.,4.,0.;                                        0000079P0000041
124,1.,0.,0.,0.,0.,-1.,0.,0.,0.,0.,-1.,0.;                       0000081P0000042
S      1G      4D     82P     42                                        T0000001
