(footprint "cover" (version 20221018) (generator pcbnew)
  (layer "F.Cu")
  (attr smd)
  (fp_text reference "REF**" (at 0 -0.5 unlocked) (layer "F.SilkS") hide
      (effects (font (size 1 1) (thickness 0.1)))
    (tstamp e484dfee-675b-4e6e-9f2a-928d96c871bd)
  )
  (fp_text value "cover" (at 0 1 unlocked) (layer "F.Fab") hide
      (effects (font (size 1 1) (thickness 0.15)))
    (tstamp 6400d5cc-3c0a-4959-b464-d5a55a4b14eb)
  )
  (fp_circle (center 0 0) (end 1.27 0)
    (stroke (width 0.1) (type default)) (fill none) (layer "F.SilkS") (tstamp e13e8434-81c7-4386-a589-ce1176eae06c))
  (model "/home/vslavkin/Downloads/cansat/cover.step"
    (offset (xyz 0 0 0))
    (scale (xyz 1 1 1))
    (rotate (xyz 0 90 0))
  )
)
