(footprint "DHT-11" (version 20221018) (generator pcbnew)
  (layer "F.Cu")
  (attr through_hole)
  (fp_text reference "REF**" (at 0 -3.81) (layer "F.SilkS")
      (effects (font (size 1 1) (thickness 0.15)))
    (tstamp ecdd12aa-0bad-4d54-a591-62cf571b491b)
  )
  (fp_text value "DHT-11" (at 0 -2.54) (layer "F.Fab")
      (effects (font (size 1 1) (thickness 0.15)))
    (tstamp 216ef19b-7f8f-4ba2-b103-aa5752bac680)
  )
  (fp_line (start -5.08 -2) (end 5.31 -2)
    (stroke (width 0.12) (type default)) (layer "F.SilkS") (tstamp c8ab14d8-3e8b-4cfb-baa7-6913fca2896f))
  (fp_line (start -5.08 2) (end -5.08 -2)
    (stroke (width 0.12) (type default)) (layer "F.SilkS") (tstamp a76ec6a9-6b07-4248-8a30-0a5f930bb0cc))
  (fp_line (start -2.54 -2) (end -2.54 2)
    (stroke (width 0.12) (type default)) (layer "F.SilkS") (tstamp b7de8eb8-69ac-4626-8690-05d45645f87a))
  (fp_line (start 5.31 -2) (end 5.31 2)
    (stroke (width 0.12) (type default)) (layer "F.SilkS") (tstamp d35a8713-74fd-4cb8-af5a-156bece71ef4))
  (fp_line (start 5.31 2) (end -5.08 2)
    (stroke (width 0.12) (type default)) (layer "F.SilkS") (tstamp b0814861-7e30-49ab-9e9c-f8e4931f78f6))
  (fp_rect (start -7.62 -5.715) (end 7.62 3.81)
    (stroke (width 0.1) (type default)) (fill none) (layer "F.CrtYd") (tstamp 2691d3bc-a544-4f32-8610-8fe4587248d7))
  (pad "1" thru_hole oval (at 3.81 0) (size 2 3) (drill 0.8) (layers "*.Cu" "*.Mask")
    (thermal_bridge_angle 45) (tstamp 8e56a2ca-baa4-41a9-ae00-cdfb39124928))
  (pad "2" thru_hole oval (at 1.27 0) (size 2 3) (drill 0.8) (layers "*.Cu" "*.Mask")
    (thermal_bridge_angle 45) (tstamp aed341f5-2d9f-405f-896e-b904b9d3dfe4))
  (pad "3" thru_hole oval (at -1.27 0) (size 2 3) (drill 0.8) (layers "*.Cu" "*.Mask")
    (thermal_bridge_angle 45) (tstamp 4b9fd2ea-62cd-4be3-954a-393032710e02))
  (pad "4" thru_hole oval (at -3.81 0) (size 2 3) (drill 0.8) (layers "*.Cu" "*.Mask")
    (thermal_bridge_angle 45) (tstamp c91a40cb-4258-4681-8481-53babfbae74f))
  (model "/home/vslavkin/Downloads/cansat/KY-015.step"
    (offset (xyz -8.65 15.5 24))
    (scale (xyz 1 1 1))
    (rotate (xyz 0 180 180))
  )
)
