(footprint "Heltec_WiFi_LoRa_V2" (version 20221018) (generator pcbnew)
  (layer "F.Cu")
  (descr "Heltec WiFi LoRa V2 Footprint")
  (attr through_hole)
  (fp_text reference "REF**" (at 0 27.94) (layer "F.SilkS")
      (effects (font (size 1 1) (thickness 0.15)))
    (tstamp 4c10d209-8a12-49fe-ba86-3a65c7f85472)
  )
  (fp_text value "Heltec WiFi LoRa V2" (at 0 -30.48) (layer "F.Fab")
      (effects (font (size 1 1) (thickness 0.15)))
    (tstamp 672c164c-c543-4dc9-b6a9-905b07776392)
  )
  (fp_text user "GPIO36" (at 7.62 -17.78) (layer "F.SilkS")
      (effects (font (size 0.8 0.8) (thickness 0.15)))
    (tstamp 0a758a96-62e5-4712-9734-006386cb702b)
  )
  (fp_text user "GPIO32" (at 7.62 -2.54) (layer "F.SilkS")
      (effects (font (size 0.8 0.8) (thickness 0.15)))
    (tstamp 0e4a4f37-c8c0-492e-b75b-9cf61292354b)
  )
  (fp_text user "GPIO25" (at 7.62 2.54) (layer "F.SilkS")
      (effects (font (size 0.8 0.8) (thickness 0.15)))
    (tstamp 10c66457-c2ef-400f-bef7-2d769e9eea1d)
  )
  (fp_text user "3V3" (at 7.62 -22.86) (layer "F.SilkS")
      (effects (font (size 0.8 0.8) (thickness 0.15)))
    (tstamp 198c926d-1fe6-4df0-b6f3-a7de8a67f3ac)
  )
  (fp_text user "3V3" (at 7.62 -20.32) (layer "F.SilkS")
      (effects (font (size 0.8 0.8) (thickness 0.15)))
    (tstamp 1bd8bcac-5b48-4fb8-8d21-475c7fbc1f9b)
  )
  (fp_text user "GPIO15" (at -7.62 7.62) (layer "F.SilkS")
      (effects (font (size 0.8 0.8) (thickness 0.15)))
    (tstamp 2168cddb-65d7-400e-9665-06f848350fa0)
  )
  (fp_text user "GPIO12" (at 7.62 12.7) (layer "F.SilkS")
      (effects (font (size 0.8 0.8) (thickness 0.15)))
    (tstamp 23bfede6-0a8b-4761-80e2-5fdef2268f27)
  )
  (fp_text user "GPIO14" (at 7.62 10.16) (layer "F.SilkS")
      (effects (font (size 0.8 0.8) (thickness 0.15)))
    (tstamp 2814bfe1-0347-44e2-8d37-b4db986f8c6e)
  )
  (fp_text user "GPIO19" (at -7.62 -2.54) (layer "F.SilkS")
      (effects (font (size 0.8 0.8) (thickness 0.15)))
    (tstamp 3241da9b-aa5b-4738-b8c9-2806b1616ebd)
  )
  (fp_text user "GPIO16" (at -7.62 17.78) (layer "F.SilkS")
      (effects (font (size 0.8 0.8) (thickness 0.15)))
    (tstamp 3e6e3981-52ce-4dbf-96cb-89a13e7e40de)
  )
  (fp_text user "Antena" (at 0 22.86) (layer "F.SilkS")
      (effects (font (size 1 1) (thickness 0.15)))
    (tstamp 5092aed3-ed25-4427-a097-55e4056a1cbc)
  )
  (fp_text user "GPIO34" (at 7.62 -7.62) (layer "F.SilkS")
      (effects (font (size 0.8 0.8) (thickness 0.15)))
    (tstamp 5ea33208-2bee-4669-9bab-1ac422587a8c)
  )
  (fp_text user "GPIO21" (at 7.62 17.78) (layer "F.SilkS")
      (effects (font (size 0.8 0.8) (thickness 0.15)))
    (tstamp 60de2e49-252d-4b87-bf1e-d6f746b7243a)
  )
  (fp_text user "RST" (at -7.62 -10.16) (layer "F.SilkS")
      (effects (font (size 0.8 0.8) (thickness 0.15)))
    (tstamp 6c5b5cca-3f8b-447b-97fa-5ae291516c14)
  )
  (fp_text user "GPIO1" (at -7.62 -12.7) (layer "F.SilkS")
      (effects (font (size 0.8 0.8) (thickness 0.15)))
    (tstamp 71393a98-0db0-4038-bd2f-cd8457be02cf)
  )
  (fp_text user "GND" (at 7.62 -25.4) (layer "F.SilkS")
      (effects (font (size 0.8 0.8) (thickness 0.15)))
    (tstamp 757ba55f-0eaf-43e9-95d4-10e2ad3dc858)
  )
  (fp_text user "GPIO18" (at -7.62 2.54) (layer "F.SilkS")
      (effects (font (size 0.8 0.8) (thickness 0.15)))
    (tstamp 7aab48ce-b411-4b1e-b9c5-c7dbe9686702)
  )
  (fp_text user "GPIO5" (at -7.62 5.08) (layer "F.SilkS")
      (effects (font (size 0.8 0.8) (thickness 0.15)))
    (tstamp 7dae85a0-d5be-4cc0-8cd8-051956ef1905)
  )
  (fp_text user "Vext" (at -7.62 -20.32) (layer "F.SilkS")
      (effects (font (size 0.8 0.8) (thickness 0.15)))
    (tstamp 80fd726c-e69f-4e94-abda-42ce50f36686)
  )
  (fp_text user "GPIO4" (at -7.62 12.7) (layer "F.SilkS")
      (effects (font (size 0.8 0.8) (thickness 0.15)))
    (tstamp 84819c55-b6a8-4b1e-8e2f-c7f77aab2df5)
  )
  (fp_text user "GND" (at -7.62 -25.4) (layer "F.SilkS")
      (effects (font (size 0.8 0.8) (thickness 0.15)))
    (tstamp 8c989688-4d19-4569-bee5-f8a2dfc9f148)
  )
  (fp_text user "GPIO37" (at 7.62 -15.24) (layer "F.SilkS")
      (effects (font (size 0.8 0.8) (thickness 0.15)))
    (tstamp 8ccc569a-2aa1-40cb-9a4f-17a0e974676b)
  )
  (fp_text user "GPIO22" (at -7.62 -5.08) (layer "F.SilkS")
      (effects (font (size 0.8 0.8) (thickness 0.15)))
    (tstamp a3ae43f3-c956-455e-ae72-dc0fc5c53137)
  )
  (fp_text user "GPIO39" (at 7.62 -10.16) (layer "F.SilkS")
      (effects (font (size 0.8 0.8) (thickness 0.15)))
    (tstamp a91f0319-ef30-4969-904c-750630b9b7de)
  )
  (fp_text user "GPIO33" (at 7.62 0) (layer "F.SilkS")
      (effects (font (size 0.8 0.8) (thickness 0.15)))
    (tstamp ab7627ba-dd1b-4f24-9878-7312bcf237ba)
  )
  (fp_text user "Vext" (at -7.62 -17.78) (layer "F.SilkS")
      (effects (font (size 0.8 0.8) (thickness 0.15)))
    (tstamp b0bda59d-3a3f-4b3d-a0cb-4c67110e7d23)
  )
  (fp_text user "GPIO27" (at 7.62 7.62) (layer "F.SilkS")
      (effects (font (size 0.8 0.8) (thickness 0.15)))
    (tstamp b492454b-38f7-495f-a95b-0aaf9382f404)
  )
  (fp_text user "GPIO23" (at -7.62 0) (layer "F.SilkS")
      (effects (font (size 0.8 0.8) (thickness 0.15)))
    (tstamp baf127e2-a281-4591-920e-78d4a24a41d3)
  )
  (fp_text user "GPIO38" (at 7.62 -12.7) (layer "F.SilkS")
      (effects (font (size 0.8 0.8) (thickness 0.15)))
    (tstamp c0bce96f-c8b8-4c0c-9358-c890eab1706e)
  )
  (fp_text user "GPIO13" (at 7.62 15.24) (layer "F.SilkS")
      (effects (font (size 0.8 0.8) (thickness 0.15)))
    (tstamp c2703fe5-2125-460a-bc07-c64a7b48d601)
  )
  (fp_text user "GPIO3" (at -7.62 -15.24) (layer "F.SilkS")
      (effects (font (size 0.8 0.8) (thickness 0.15)))
    (tstamp d4921b63-6531-4356-844a-6b19295b1df8)
  )
  (fp_text user "GPIO2" (at -7.62 10.16) (layer "F.SilkS")
      (effects (font (size 0.8 0.8) (thickness 0.15)))
    (tstamp d7a683ee-fd94-4e46-ba2a-56a6fdbaa7b7)
  )
  (fp_text user "GPIO26" (at 7.62 5.08) (layer "F.SilkS")
      (effects (font (size 0.8 0.8) (thickness 0.15)))
    (tstamp e8d68684-c2b9-40c3-a9f2-19acff61637d)
  )
  (fp_text user "GPIO35" (at 7.62 -5.08) (layer "F.SilkS")
      (effects (font (size 0.8 0.8) (thickness 0.15)))
    (tstamp f31456d1-1993-41e5-b3a6-a73e0e663b0b)
  )
  (fp_text user "5V" (at -7.62 -22.86) (layer "F.SilkS")
      (effects (font (size 0.8 0.8) (thickness 0.15)))
    (tstamp f414181d-c534-4ee6-a802-c5d430e578e2)
  )
  (fp_text user "GPIO17" (at -7.62 15.24) (layer "F.SilkS")
      (effects (font (size 0.8 0.8) (thickness 0.15)))
    (tstamp f8ac3f53-2492-42e8-bba3-cb1fb4ae74fc)
  )
  (fp_text user "GPIO0" (at -7.62 -7.62) (layer "F.SilkS")
      (effects (font (size 0.8 0.8) (thickness 0.15)))
    (tstamp ff7cc6c5-6b22-4b76-a450-c2459ea70242)
  )
  (fp_line (start -12.7 -27.94) (end -12.7 17.78)
    (stroke (width 0.12) (type solid)) (layer "F.SilkS") (tstamp a15b08ca-d276-4a91-ba30-152924cd61c4))
  (fp_line (start -12.7 -27.94) (end 12.7 -27.94)
    (stroke (width 0.12) (type solid)) (layer "F.SilkS") (tstamp e40b793e-bf5d-4156-80a4-f4775937cff8))
  (fp_line (start -12.7 17.78) (end -12.7 22.86)
    (stroke (width 0.12) (type solid)) (layer "F.SilkS") (tstamp 8ad9cc94-4210-4262-831d-a2e878454c43))
  (fp_line (start -12.7 22.86) (end -10.16 22.86)
    (stroke (width 0.12) (type solid)) (layer "F.SilkS") (tstamp cc2e8eb9-f469-4b21-a08a-bd4d3be11c14))
  (fp_line (start -10.16 22.86) (end -7.62 25.4)
    (stroke (width 0.12) (type solid)) (layer "F.SilkS") (tstamp 6d0f5173-64c8-46e6-9ab0-db1ae3a95d74))
  (fp_line (start -7.62 25.4) (end 7.62 25.4)
    (stroke (width 0.12) (type solid)) (layer "F.SilkS") (tstamp c80ff600-7742-46ea-9928-1f9a6a3b5dca))
  (fp_line (start 7.62 25.4) (end 10.16 22.86)
    (stroke (width 0.12) (type solid)) (layer "F.SilkS") (tstamp 7175a4c4-5b4a-4fa3-aea1-ca05f401b1b8))
  (fp_line (start 10.16 22.86) (end 12.7 22.86)
    (stroke (width 0.12) (type solid)) (layer "F.SilkS") (tstamp 93ddc729-ce7d-489b-a257-7e3d63bce24f))
  (fp_line (start 12.7 17.78) (end 12.7 -27.94)
    (stroke (width 0.12) (type solid)) (layer "F.SilkS") (tstamp 30163127-2afe-44dd-ab92-2c26cfe01a6e))
  (fp_line (start 12.7 22.86) (end 12.7 17.78)
    (stroke (width 0.12) (type solid)) (layer "F.SilkS") (tstamp fb910f13-e56c-4cfb-bc59-91cd9bb63570))
  (pad "1" thru_hole circle (at -11.515 -25.4) (size 1.524 1.524) (drill 0.9) (layers "*.Cu" "*.Mask") (tstamp 469c1654-2e8f-42df-8556-6206c47d31f3))
  (pad "2" thru_hole circle (at -11.515 -22.86) (size 1.524 1.524) (drill 0.9) (layers "*.Cu" "*.Mask") (tstamp 89b946b5-65d4-441c-9a3f-1b08309caeb2))
  (pad "3" thru_hole circle (at -11.515 -20.32) (size 1.524 1.524) (drill 0.9) (layers "*.Cu" "*.Mask") (tstamp 7a5cbdb4-79ca-49b1-b934-1b2f8f23384f))
  (pad "4" thru_hole circle (at -11.515 -17.78) (size 1.524 1.524) (drill 0.9) (layers "*.Cu" "*.Mask") (tstamp dcd60376-a15a-4031-8121-f75cf7052847))
  (pad "5" thru_hole circle (at -11.515 -15.24) (size 1.524 1.524) (drill 0.9) (layers "*.Cu" "*.Mask") (tstamp ec93bd2b-e157-4927-9899-7123da455bd2))
  (pad "6" thru_hole circle (at -11.515 -12.7) (size 1.524 1.524) (drill 0.9) (layers "*.Cu" "*.Mask") (tstamp c09de5a4-7dbc-4f58-b886-adc05867fc26))
  (pad "7" thru_hole circle (at -11.515 -10.16) (size 1.524 1.524) (drill 0.9) (layers "*.Cu" "*.Mask") (tstamp 390c212c-a804-4864-83fd-b04ee1ae8916))
  (pad "8" thru_hole circle (at -11.515 -7.62) (size 1.524 1.524) (drill 0.9) (layers "*.Cu" "*.Mask") (tstamp 84728725-dfe7-4a85-994b-63f3506ea951))
  (pad "9" thru_hole circle (at -11.515 -5.08) (size 1.524 1.524) (drill 0.9) (layers "*.Cu" "*.Mask") (tstamp 8c0fe0d3-f467-48bc-921b-416cee0086ac))
  (pad "10" thru_hole circle (at -11.515 -2.54) (size 1.524 1.524) (drill 0.9) (layers "*.Cu" "*.Mask") (tstamp 390901b7-3004-4a46-9aa8-769c8f43b781))
  (pad "11" thru_hole circle (at -11.515 0) (size 1.524 1.524) (drill 0.9) (layers "*.Cu" "*.Mask") (tstamp 6ddd0c3a-49ec-4f40-9ed5-397d80ce0191))
  (pad "12" thru_hole circle (at -11.515 2.54) (size 1.524 1.524) (drill 0.9) (layers "*.Cu" "*.Mask") (tstamp a0acc2b8-5f34-4ef5-a2ff-6ba519f2ba86))
  (pad "13" thru_hole circle (at -11.515 5.08) (size 1.524 1.524) (drill 0.9) (layers "*.Cu" "*.Mask") (tstamp 25164746-4294-4728-8e05-6cf2c0f2e20f))
  (pad "14" thru_hole circle (at -11.515 7.62) (size 1.524 1.524) (drill 0.9) (layers "*.Cu" "*.Mask") (tstamp 364e4699-13fa-4592-a30f-1aee61971808))
  (pad "15" thru_hole circle (at -11.515 10.16) (size 1.524 1.524) (drill 0.9) (layers "*.Cu" "*.Mask") (tstamp 7f5444a6-d703-452c-8aaf-ba379c81c1e7))
  (pad "16" thru_hole circle (at -11.515 12.7) (size 1.524 1.524) (drill 0.9) (layers "*.Cu" "*.Mask") (tstamp 05350a86-ab72-4be8-83d5-222090c68996))
  (pad "17" thru_hole circle (at -11.515 15.24) (size 1.524 1.524) (drill 0.9) (layers "*.Cu" "*.Mask") (tstamp 97486e58-4d94-413b-a23c-0e6d043baeab))
  (pad "18" thru_hole circle (at -11.515 17.78) (size 1.524 1.524) (drill 0.9) (layers "*.Cu" "*.Mask") (tstamp 5aa91caa-5ac4-4ce4-9b40-2444c01e4d6b))
  (pad "19" thru_hole circle (at 11.515 17.78) (size 1.524 1.524) (drill 0.9) (layers "*.Cu" "*.Mask") (tstamp 688bf080-ef9b-40ef-979e-16eef5f6bf94))
  (pad "20" thru_hole circle (at 11.515 15.24) (size 1.524 1.524) (drill 0.9) (layers "*.Cu" "*.Mask") (tstamp 01f7be7b-983e-4b69-87b5-e2cba46b204c))
  (pad "21" thru_hole circle (at 11.515 12.7) (size 1.524 1.524) (drill 0.9) (layers "*.Cu" "*.Mask") (tstamp f8a0cc2f-1d0a-4925-bfc1-ac2a4f0912d5))
  (pad "22" thru_hole circle (at 11.515 10.16) (size 1.524 1.524) (drill 0.9) (layers "*.Cu" "*.Mask") (tstamp a0902265-9573-4bf3-8a74-d96790362dda))
  (pad "23" thru_hole circle (at 11.515 7.62) (size 1.524 1.524) (drill 0.9) (layers "*.Cu" "*.Mask") (tstamp 6f06767e-89a8-4c26-a6b4-14cf9a450348))
  (pad "24" thru_hole circle (at 11.515 5.08) (size 1.524 1.524) (drill 0.9) (layers "*.Cu" "*.Mask") (tstamp 3af8891b-3685-42fd-9636-615005b941f9))
  (pad "25" thru_hole circle (at 11.515 2.54) (size 1.524 1.524) (drill 0.9) (layers "*.Cu" "*.Mask") (tstamp 947cb89f-2c4f-4c85-872e-1fae827a2893))
  (pad "26" thru_hole circle (at 11.515 0) (size 1.524 1.524) (drill 0.9) (layers "*.Cu" "*.Mask") (tstamp 30ade649-eb90-4f52-8e57-7e4444b9aef2))
  (pad "27" thru_hole circle (at 11.515 -2.54) (size 1.524 1.524) (drill 0.9) (layers "*.Cu" "*.Mask") (tstamp f694450c-9ca5-4609-bc54-362e654b2d0c))
  (pad "28" thru_hole circle (at 11.515 -5.08) (size 1.524 1.524) (drill 0.9) (layers "*.Cu" "*.Mask") (tstamp 159597b4-16cd-4a49-9911-fe42051da36e))
  (pad "29" thru_hole circle (at 11.515 -7.62) (size 1.524 1.524) (drill 0.9) (layers "*.Cu" "*.Mask") (tstamp f2955a5a-4e19-417f-b27a-21e97aae3a0e))
  (pad "30" thru_hole circle (at 11.515 -10.16) (size 1.524 1.524) (drill 0.9) (layers "*.Cu" "*.Mask") (tstamp 4c77d796-ae8e-44d2-96ef-3d9ea68ad4d2))
  (pad "31" thru_hole circle (at 11.515 -12.7) (size 1.524 1.524) (drill 0.9) (layers "*.Cu" "*.Mask") (tstamp 71ed705d-0334-43df-9222-b1fd22035263))
  (pad "32" thru_hole circle (at 11.515 -15.24) (size 1.524 1.524) (drill 0.9) (layers "*.Cu" "*.Mask") (tstamp 9cbd5451-2ced-489c-b6fd-4324bc718c7b))
  (pad "33" thru_hole circle (at 11.515 -17.78) (size 1.524 1.524) (drill 0.9) (layers "*.Cu" "*.Mask") (tstamp a4a81bf0-5852-482e-a6ea-8a3b92207532))
  (pad "34" thru_hole circle (at 11.515 -20.32) (size 1.524 1.524) (drill 0.9) (layers "*.Cu" "*.Mask") (tstamp 10762fb1-0ccb-41a0-bbd4-58e0dfe2fc81))
  (pad "35" thru_hole circle (at 11.515 -22.86) (size 1.524 1.524) (drill 0.9) (layers "*.Cu" "*.Mask") (tstamp 7c446397-ff6c-4f29-9662-982d37dbfa35))
  (pad "36" thru_hole circle (at 11.515 -25.4) (size 1.524 1.524) (drill 0.9) (layers "*.Cu" "*.Mask") (tstamp 29fad91f-c5a2-4244-b345-a275aa5715aa))
  (model "/home/vslavkin/Downloads/cansat/ESP32 Heltec WIFI.IGS"
    (offset (xyz 0 2.5 8.5))
    (scale (xyz 1 1 1))
    (rotate (xyz -90 0 90))
  )
)
