(kicad_symbol_lib (version 20220914) (generator kicad_symbol_editor)
  (symbol "Heltec_Wifi_LoRa_V1" (pin_names (offset 1.016)) (in_bom yes) (on_board yes)
    (property "Reference" "U" (at 0 21.59 0)
      (effects (font (size 1.27 1.27)))
    )
    (property "Value" "Heltec_Wifi_LoRa_V1" (at 1.27 19.05 0)
      (effects (font (size 1.27 1.27)))
    )
    (property "Footprint" "" (at 0 0 0)
      (effects (font (size 1.27 1.27)) hide)
    )
    (property "Datasheet" "" (at 0 0 0)
      (effects (font (size 1.27 1.27)) hide)
    )
    (symbol "Heltec_Wifi_LoRa_V1_0_1"
      (rectangle (start -55.88 5.08) (end 54.61 -39.37)
        (stroke (width 0) (type solid))
        (fill (type background))
      )
    )
    (symbol "Heltec_Wifi_LoRa_V1_1_1"
      (pin power_in line (at -2.54 -41.91 90) (length 2.54)
        (name "GND" (effects (font (size 1.27 1.27))))
        (number "1" (effects (font (size 1.27 1.27))))
      )
      (pin bidirectional line (at -58.42 -16.51 0) (length 2.54)
        (name "LORA_MISO/U0_CTS/V_SPI_Q/GPIO19" (effects (font (size 1.27 1.27))))
        (number "10" (effects (font (size 1.27 1.27))))
      )
      (pin bidirectional line (at -58.42 -19.05 0) (length 2.54)
        (name "V_SPI_D/GPIO23" (effects (font (size 1.27 1.27))))
        (number "11" (effects (font (size 1.27 1.27))))
      )
      (pin bidirectional line (at -58.42 -21.59 0) (length 2.54)
        (name "LORA_CS/V_SPI_CLK/GPIO18" (effects (font (size 1.27 1.27))))
        (number "12" (effects (font (size 1.27 1.27))))
      )
      (pin bidirectional line (at -58.42 -24.13 0) (length 2.54)
        (name "LORA_SCK/V_SPI_CS0/GPIO5" (effects (font (size 1.27 1.27))))
        (number "13" (effects (font (size 1.27 1.27))))
      )
      (pin bidirectional line (at -58.42 -26.67 0) (length 2.54)
        (name "OLED_SCL/TOUCH3/HSPI_CS0/ADC2_3/GPIO15" (effects (font (size 1.27 1.27))))
        (number "14" (effects (font (size 1.27 1.27))))
      )
      (pin bidirectional line (at -58.42 -29.21 0) (length 2.54)
        (name "TOUCH2/HSPI_WP/ADC2_2/GPIO2" (effects (font (size 1.27 1.27))))
        (number "15" (effects (font (size 1.27 1.27))))
      )
      (pin bidirectional line (at -58.42 -31.75 0) (length 2.54)
        (name "OLED_SDA/TOUCH0/HSPI_HD/ADC2_0/GPIO4" (effects (font (size 1.27 1.27))))
        (number "16" (effects (font (size 1.27 1.27))))
      )
      (pin bidirectional line (at -58.42 -34.29 0) (length 2.54)
        (name "U2_TX/GPIO17" (effects (font (size 1.27 1.27))))
        (number "17" (effects (font (size 1.27 1.27))))
      )
      (pin bidirectional line (at -58.42 -36.83 0) (length 2.54)
        (name "OLED_RST/U2_RX/GPIO16" (effects (font (size 1.27 1.27))))
        (number "18" (effects (font (size 1.27 1.27))))
      )
      (pin bidirectional line (at 57.15 -36.83 180) (length 2.54)
        (name "V_SPI_HD/SDA/GPIO21" (effects (font (size 1.27 1.27))))
        (number "19" (effects (font (size 1.27 1.27))))
      )
      (pin power_in line (at 2.54 7.62 270) (length 2.54)
        (name "5V" (effects (font (size 1.27 1.27))))
        (number "2" (effects (font (size 1.27 1.27))))
      )
      (pin bidirectional line (at 57.15 -34.29 180) (length 2.54)
        (name "TOUCH4/ADC2_4/GPIO13" (effects (font (size 1.27 1.27))))
        (number "20" (effects (font (size 1.27 1.27))))
      )
      (pin bidirectional line (at 57.15 -31.75 180) (length 2.54)
        (name "TOUCH5/ADC2_5/GPIO12" (effects (font (size 1.27 1.27))))
        (number "21" (effects (font (size 1.27 1.27))))
      )
      (pin bidirectional line (at 57.15 -29.21 180) (length 2.54)
        (name "LORA_RST/TOUCH6/ADC2_6/GPIO14" (effects (font (size 1.27 1.27))))
        (number "22" (effects (font (size 1.27 1.27))))
      )
      (pin bidirectional line (at 57.15 -26.67 180) (length 2.54)
        (name "LORA_MOSI/TOUCH7/ADC2_7/GPIO27" (effects (font (size 1.27 1.27))))
        (number "23" (effects (font (size 1.27 1.27))))
      )
      (pin bidirectional line (at 57.15 -24.13 180) (length 2.54)
        (name "LORA_DIO0/DAC1/ADC2_9/GPIO26" (effects (font (size 1.27 1.27))))
        (number "24" (effects (font (size 1.27 1.27))))
      )
      (pin bidirectional line (at 57.15 -21.59 180) (length 2.54)
        (name "LED/DAC2/ADC2_8/GPIO25" (effects (font (size 1.27 1.27))))
        (number "25" (effects (font (size 1.27 1.27))))
      )
      (pin bidirectional line (at 57.15 -19.05 180) (length 2.54)
        (name "LORA_DIO1/XTAL32/TOUCH8/ADC1_5/GPIO33" (effects (font (size 1.27 1.27))))
        (number "26" (effects (font (size 1.27 1.27))))
      )
      (pin bidirectional line (at 57.15 -16.51 180) (length 2.54)
        (name "LORA_DIO2/XTAL32/TOUCH9/ADC1_4/GPIO32" (effects (font (size 1.27 1.27))))
        (number "27" (effects (font (size 1.27 1.27))))
      )
      (pin bidirectional line (at 57.15 -13.97 180) (length 2.54)
        (name "ADC1_7/GPIO35" (effects (font (size 1.27 1.27))))
        (number "28" (effects (font (size 1.27 1.27))))
      )
      (pin bidirectional line (at 57.15 -11.43 180) (length 2.54)
        (name "ADC1_6/GPIO34" (effects (font (size 1.27 1.27))))
        (number "29" (effects (font (size 1.27 1.27))))
      )
      (pin power_in line (at -2.54 7.62 270) (length 2.54)
        (name "3V3" (effects (font (size 1.27 1.27))))
        (number "3" (effects (font (size 1.27 1.27))))
      )
      (pin bidirectional line (at 57.15 -8.89 180) (length 2.54)
        (name "ADC1_3/GPIO39" (effects (font (size 1.27 1.27))))
        (number "30" (effects (font (size 1.27 1.27))))
      )
      (pin bidirectional line (at 57.15 -6.35 180) (length 2.54)
        (name "ADC1_2/GPIO38" (effects (font (size 1.27 1.27))))
        (number "31" (effects (font (size 1.27 1.27))))
      )
      (pin bidirectional line (at 57.15 -3.81 180) (length 2.54)
        (name "ADC1_1/GPIO37" (effects (font (size 1.27 1.27))))
        (number "32" (effects (font (size 1.27 1.27))))
      )
      (pin bidirectional line (at 57.15 -1.27 180) (length 2.54)
        (name "ADC1_0/GPIO36" (effects (font (size 1.27 1.27))))
        (number "33" (effects (font (size 1.27 1.27))))
      )
      (pin power_in line (at -6.35 7.62 270) (length 2.54)
        (name "3V3" (effects (font (size 1.27 1.27))))
        (number "34" (effects (font (size 1.27 1.27))))
      )
      (pin power_in line (at 6.35 7.62 270) (length 2.54)
        (name "5V" (effects (font (size 1.27 1.27))))
        (number "35" (effects (font (size 1.27 1.27))))
      )
      (pin power_in line (at 2.54 -41.91 90) (length 2.54)
        (name "GND" (effects (font (size 1.27 1.27))))
        (number "36" (effects (font (size 1.27 1.27))))
      )
      (pin power_in line (at 0 -41.91 90) (length 2.54)
        (name "GND" (effects (font (size 1.27 1.27))))
        (number "4" (effects (font (size 1.27 1.27))))
      )
      (pin bidirectional line (at -58.42 -3.81 0) (length 2.54)
        (name "U0_RX/GPIO3" (effects (font (size 1.27 1.27))))
        (number "5" (effects (font (size 1.27 1.27))))
      )
      (pin bidirectional line (at -58.42 -6.35 0) (length 2.54)
        (name "U0_TX/GPIO1" (effects (font (size 1.27 1.27))))
        (number "6" (effects (font (size 1.27 1.27))))
      )
      (pin input line (at -58.42 -8.89 0) (length 2.54)
        (name "RST" (effects (font (size 1.27 1.27))))
        (number "7" (effects (font (size 1.27 1.27))))
      )
      (pin bidirectional line (at -58.42 -11.43 0) (length 2.54)
        (name "PRG_BUTTON/TOUCH1/ADC2_1/GPIO0" (effects (font (size 1.27 1.27))))
        (number "8" (effects (font (size 1.27 1.27))))
      )
      (pin bidirectional line (at -58.42 -13.97 0) (length 2.54)
        (name "U0_RTS/V_SPI_WP/SCL/GPIO22" (effects (font (size 1.27 1.27))))
        (number "9" (effects (font (size 1.27 1.27))))
      )
    )
  )
)
